module gitlab.com/wasmuniversity/demo-reactr-runnables

go 1.17

require github.com/suborbital/reactr v0.15.1

require (
	github.com/bytecodealliance/wasmtime-go v0.35.0 // indirect
	github.com/cespare/xxhash/v2 v2.1.2 // indirect
	github.com/dgryski/go-rendezvous v0.0.0-20200823014737-9f7001d12a5f // indirect
	github.com/go-redis/redis/v8 v8.11.4 // indirect
	github.com/go-sql-driver/mysql v1.6.0 // indirect
	github.com/google/uuid v1.3.0 // indirect
	github.com/jackc/chunkreader/v2 v2.0.1 // indirect
	github.com/jackc/pgconn v1.11.0 // indirect
	github.com/jackc/pgio v1.0.0 // indirect
	github.com/jackc/pgpassfile v1.0.0 // indirect
	github.com/jackc/pgproto3/v2 v2.2.0 // indirect
	github.com/jackc/pgservicefile v0.0.0-20200714003250-2b9c44734f2b // indirect
	github.com/jackc/pgtype v1.10.0 // indirect
	github.com/jackc/pgx/v4 v4.15.0 // indirect
	github.com/jmoiron/sqlx v1.3.4 // indirect
	github.com/julienschmidt/httprouter v1.3.0 // indirect
	github.com/pkg/errors v0.9.1 // indirect
	github.com/second-state/WasmEdge-go v0.9.2 // indirect
	github.com/sethvargo/go-envconfig v0.5.0 // indirect
	github.com/suborbital/grav v0.5.0 // indirect
	github.com/suborbital/vektor v0.5.2 // indirect
	github.com/wasmerio/wasmer-go v1.0.4 // indirect
	golang.org/x/crypto v0.0.0-20220307211146-efcb8507fb70 // indirect
	golang.org/x/net v0.0.0-20220225172249-27dd8689420f // indirect
	golang.org/x/sync v0.0.0-20210220032951-036812b2e83c // indirect
	golang.org/x/text v0.3.7 // indirect
)
